{
  "project_info": {
    "project_number": "525749201321",
    "firebase_url": "https://newproject-e1b95.firebaseio.com",
    "project_id": "newproject-e1b95",
    "storage_bucket": "newproject-e1b95.appspot.com"
  },
  "client": [
    {
      "client_info": {
        "mobilesdk_app_id": "1:525749201321:android:c816bd6e4e0ee34d",
        "android_client_info": {
          "package_name": "com.newbiz.supportchat"
        }
      },
      "oauth_client": [
        {
          "client_id": "525749201321-n9gvrqbrbjjlngeg09of1bs7k4v8d5ce.apps.googleusercontent.com",
          "client_type": 3
        }
      ],
      "api_key": [
        {
          "current_key": "AIzaSyDb4lmeyPdOZOxTKfOJhPDXCwLlOu_cyTc"
        }
      ],
      "services": {
        "analytics_service": {
          "status": 1
        },
        "appinvite_service": {
          "status": 1,
          "other_platform_oauth_client": []
        },
        "ads_service": {
          "status": 2
        }
      }
    },
    {
      "client_info": {
        "mobilesdk_app_id": "1:525749201321:android:15e17f8cce374104",
        "android_client_info": {
          "package_name": "com.newbizapp.android"
        }
      },
      "oauth_client": [
        {
          "client_id": "525749201321-n9gvrqbrbjjlngeg09of1bs7k4v8d5ce.apps.googleusercontent.com",
          "client_type": 3
        }
      ],
      "api_key": [
        {
          "current_key": "AIzaSyDb4lmeyPdOZOxTKfOJhPDXCwLlOu_cyTc"
        }
      ],
      "services": {
        "analytics_service": {
          "status": 1
        },
        "appinvite_service": {
          "status": 1,
          "other_platform_oauth_client": []
        },
        "ads_service": {
          "status": 2
        }
      }
    }
  ],
  "configuration_version": "1"
}